This file contains any messages produced by compilers while
running configure, to aid debugging if configure makes a mistake.

It was created by hashcs configure 6.0.1, which was
generated by GNU Autoconf 2.68.  Invocation command line was

  $ ./configure CFLAGS=-I/home/ssul/work/packages/x86_64-rhel5/include -I/home/ssul/work/packages/include  -I/usr/local/include LDFLAGS=-L/home/ssul/work/packages/x86_64-rhel5/lib64 -Wl,-R/home/ssul/work/packages/x86_64-rhel5/lib64 -L/home/ssul/work/packages/x86_64-rhel5/lib -Wl,-R/home/ssul/work/packages/x86_64-rhel5/lib  -L/usr/local/lib64 -Wl,-R/usr/local/lib64 -L/usr/local/lib -Wl,-R/usr/local/lib CPPFLAGS=-I/home/ssul/work/packages/x86_64-rhel5/include -I/home/ssul/work/packages/include  CXXFLAGS=-I/home/ssul/work/packages/x86_64-rhel5/include -I/home/ssul/work/packages/include  --no-create --no-recursion

## --------- ##
## Platform. ##
## --------- ##

hostname = ssul-lx
uname -m = x86_64
uname -r = 2.6.18-128.2.1.el5
uname -s = Linux
uname -v = #1 SMP Tue Jul 14 06:36:37 EDT 2009

/usr/bin/uname -p = unknown
/bin/uname -X     = unknown

/bin/arch              = x86_64
/usr/bin/arch -k       = unknown
/usr/convex/getsysinfo = unknown
/usr/bin/hostinfo      = unknown
/bin/machine           = unknown
/usr/bin/oslevel       = unknown
/bin/universe          = unknown

PATH: /home/ssul/work/packages/bin
PATH: /home/ssul/work/packages/x86_64-rhel5/bin
PATH: /home/ssul/work/packages2/bin
PATH: /home/ssul/work/packages2/x86_64-rhel5/bin
PATH: /home/ssul/work/distros2/mpiblast/mpiblast/ncbi/bin
PATH: /home/ssul/work/distros2/blast+/ncbi-blast-2.2.24+-src/c++/ReleaseMT/bin
PATH: /usr/local/scratch/METAGENOMICS/ssul
PATH: /home/ssul/work/packages/x86_32/texlive/2007/bin/i386-linux
PATH: /home/ssul/work/packages/x86_64-rhel5/bin
PATH: /home/ssul/work/packages/bin
PATH: /usr/local/sge_current/bin/lx24-amd64
PATH: /usr/local/packages/tmake/bin
PATH: /home/ssul/bin
PATH: /usr/local/bin
PATH: /usr/local/common
PATH: /usr/bin
PATH: /bin
PATH: /opt/gnome/bin
PATH: /opt/kde3/bin
PATH: /opt/lam/bin
PATH: /usr/lib64/qt-3.3/bin
PATH: /usr/kerberos/bin
PATH: /usr/X11R6/bin
PATH: /opt/real/RealPlayer
PATH: /home/ssul/work/packages/mgtaxa/bin
PATH: /home/ssul/work/packages/x86_64-rhel5/mgtaxa/bin


## ----------- ##
## Core tests. ##
## ----------- ##

configure:2104: checking for a BSD-compatible install
configure:2172: result: /usr/local/bin/install -c
configure:2183: checking whether build environment is sane
configure:2233: result: yes
configure:2374: checking for a thread-safe mkdir -p
configure:2413: result: /bin/mkdir -p
configure:2426: checking for gawk
configure:2442: found /usr/local/bin/gawk
configure:2453: result: gawk
configure:2464: checking whether make sets $(MAKE)
configure:2486: result: yes
configure:2618: checking for gcc
configure:2634: found /usr/local/bin/gcc
configure:2645: result: gcc
configure:2874: checking for C compiler version
configure:2883: gcc --version >&5
gcc (GCC) 4.1.2
Copyright (C) 2006 Free Software Foundation, Inc.
This is free software; see the source for copying conditions.  There is NO
warranty; not even for MERCHANTABILITY or FITNESS FOR A PARTICULAR PURPOSE.

configure:2894: $? = 0
configure:2883: gcc -v >&5
Using built-in specs.
Target: x86_64-unknown-linux-gnu
Configured with: ../gcc-4.1.2/configure --prefix=/usr/local/packages/gcc-4.1.2 --with-mpfr=/usr/local/packages/mpfr --with-gmp=/usr/local/packages/gmp --enable-languages=c,ada,c++,java,objc,obj-c++,fortran
Thread model: posix
gcc version 4.1.2
configure:2894: $? = 0
configure:2883: gcc -V >&5
gcc: '-V' option must have argument
configure:2894: $? = 1
configure:2883: gcc -qversion >&5
gcc: unrecognized option '-qversion'
gcc: no input files
configure:2894: $? = 1
configure:2914: checking whether the C compiler works
configure:2936: gcc -I/home/ssul/work/packages/x86_64-rhel5/include -I/home/ssul/work/packages/include  -I/usr/local/include -I/home/ssul/work/packages/x86_64-rhel5/include -I/home/ssul/work/packages/include  -L/home/ssul/work/packages/x86_64-rhel5/lib64 -Wl,-R/home/ssul/work/packages/x86_64-rhel5/lib64 -L/home/ssul/work/packages/x86_64-rhel5/lib -Wl,-R/home/ssul/work/packages/x86_64-rhel5/lib  -L/usr/local/lib64 -Wl,-R/usr/local/lib64 -L/usr/local/lib -Wl,-R/usr/local/lib conftest.c  >&5
configure:2940: $? = 0
configure:2988: result: yes
configure:2991: checking for C compiler default output file name
configure:2993: result: a.out
configure:2999: checking for suffix of executables
configure:3006: gcc -o conftest -I/home/ssul/work/packages/x86_64-rhel5/include -I/home/ssul/work/packages/include  -I/usr/local/include -I/home/ssul/work/packages/x86_64-rhel5/include -I/home/ssul/work/packages/include  -L/home/ssul/work/packages/x86_64-rhel5/lib64 -Wl,-R/home/ssul/work/packages/x86_64-rhel5/lib64 -L/home/ssul/work/packages/x86_64-rhel5/lib -Wl,-R/home/ssul/work/packages/x86_64-rhel5/lib  -L/usr/local/lib64 -Wl,-R/usr/local/lib64 -L/usr/local/lib -Wl,-R/usr/local/lib conftest.c  >&5
configure:3010: $? = 0
configure:3032: result: 
configure:3054: checking whether we are cross compiling
configure:3062: gcc -o conftest -I/home/ssul/work/packages/x86_64-rhel5/include -I/home/ssul/work/packages/include  -I/usr/local/include -I/home/ssul/work/packages/x86_64-rhel5/include -I/home/ssul/work/packages/include  -L/home/ssul/work/packages/x86_64-rhel5/lib64 -Wl,-R/home/ssul/work/packages/x86_64-rhel5/lib64 -L/home/ssul/work/packages/x86_64-rhel5/lib -Wl,-R/home/ssul/work/packages/x86_64-rhel5/lib  -L/usr/local/lib64 -Wl,-R/usr/local/lib64 -L/usr/local/lib -Wl,-R/usr/local/lib conftest.c  >&5
configure:3066: $? = 0
configure:3073: ./conftest
configure:3077: $? = 0
configure:3092: result: no
configure:3097: checking for suffix of object files
configure:3119: gcc -c -I/home/ssul/work/packages/x86_64-rhel5/include -I/home/ssul/work/packages/include  -I/usr/local/include -I/home/ssul/work/packages/x86_64-rhel5/include -I/home/ssul/work/packages/include  conftest.c >&5
configure:3123: $? = 0
configure:3144: result: o
configure:3148: checking whether we are using the GNU C compiler
configure:3167: gcc -c -I/home/ssul/work/packages/x86_64-rhel5/include -I/home/ssul/work/packages/include  -I/usr/local/include -I/home/ssul/work/packages/x86_64-rhel5/include -I/home/ssul/work/packages/include  conftest.c >&5
configure:3167: $? = 0
configure:3176: result: yes
configure:3185: checking whether gcc accepts -g
configure:3205: gcc -c -g -I/home/ssul/work/packages/x86_64-rhel5/include -I/home/ssul/work/packages/include  conftest.c >&5
configure:3205: $? = 0
configure:3246: result: yes
configure:3263: checking for gcc option to accept ISO C89
configure:3327: gcc  -c -I/home/ssul/work/packages/x86_64-rhel5/include -I/home/ssul/work/packages/include  -I/usr/local/include -I/home/ssul/work/packages/x86_64-rhel5/include -I/home/ssul/work/packages/include  conftest.c >&5
configure:3327: $? = 0
configure:3340: result: none needed
configure:3371: checking for style of include used by make
configure:3399: result: GNU
configure:3424: checking dependency style of gcc
configure:3534: result: gcc3
configure:3607: checking for g++
configure:3623: found /usr/local/bin/g++
configure:3634: result: g++
configure:3661: checking for C++ compiler version
configure:3670: g++ --version >&5
g++ (GCC) 4.1.2
Copyright (C) 2006 Free Software Foundation, Inc.
This is free software; see the source for copying conditions.  There is NO
warranty; not even for MERCHANTABILITY or FITNESS FOR A PARTICULAR PURPOSE.

configure:3681: $? = 0
configure:3670: g++ -v >&5
Using built-in specs.
Target: x86_64-unknown-linux-gnu
Configured with: ../gcc-4.1.2/configure --prefix=/usr/local/packages/gcc-4.1.2 --with-mpfr=/usr/local/packages/mpfr --with-gmp=/usr/local/packages/gmp --enable-languages=c,ada,c++,java,objc,obj-c++,fortran
Thread model: posix
gcc version 4.1.2
configure:3681: $? = 0
configure:3670: g++ -V >&5
g++: '-V' option must have argument
configure:3681: $? = 1
configure:3670: g++ -qversion >&5
g++: unrecognized option '-qversion'
g++: no input files
configure:3681: $? = 1
configure:3685: checking whether we are using the GNU C++ compiler
configure:3704: g++ -c -I/home/ssul/work/packages/x86_64-rhel5/include -I/home/ssul/work/packages/include  -I/home/ssul/work/packages/x86_64-rhel5/include -I/home/ssul/work/packages/include  conftest.cpp >&5
configure:3704: $? = 0
configure:3713: result: yes
configure:3722: checking whether g++ accepts -g
configure:3742: g++ -c -g -I/home/ssul/work/packages/x86_64-rhel5/include -I/home/ssul/work/packages/include  conftest.cpp >&5
configure:3742: $? = 0
configure:3783: result: yes
configure:3808: checking dependency style of g++
configure:3918: result: gcc3
configure:3942: checking for dirent.h that defines DIR
configure:3961: gcc -c -I/home/ssul/work/packages/x86_64-rhel5/include -I/home/ssul/work/packages/include  -I/usr/local/include -I/home/ssul/work/packages/x86_64-rhel5/include -I/home/ssul/work/packages/include  conftest.c >&5
configure:3961: $? = 0
configure:3969: result: yes
configure:3982: checking for library containing opendir
configure:4013: gcc -o conftest -I/home/ssul/work/packages/x86_64-rhel5/include -I/home/ssul/work/packages/include  -I/usr/local/include -I/home/ssul/work/packages/x86_64-rhel5/include -I/home/ssul/work/packages/include  -L/home/ssul/work/packages/x86_64-rhel5/lib64 -Wl,-R/home/ssul/work/packages/x86_64-rhel5/lib64 -L/home/ssul/work/packages/x86_64-rhel5/lib -Wl,-R/home/ssul/work/packages/x86_64-rhel5/lib  -L/usr/local/lib64 -Wl,-R/usr/local/lib64 -L/usr/local/lib -Wl,-R/usr/local/lib conftest.c  >&5
configure:4013: $? = 0
configure:4030: result: none required
configure:4104: checking how to run the C preprocessor
configure:4135: gcc -E -I/home/ssul/work/packages/x86_64-rhel5/include -I/home/ssul/work/packages/include  conftest.c
configure:4135: $? = 0
configure:4149: gcc -E -I/home/ssul/work/packages/x86_64-rhel5/include -I/home/ssul/work/packages/include  conftest.c
conftest.c:12:28: error: ac_nonexistent.h: No such file or directory
configure:4149: $? = 1
configure: failed program was:
| /* confdefs.h */
| #define PACKAGE_NAME "hashcs"
| #define PACKAGE_TARNAME "hashcs"
| #define PACKAGE_VERSION "6.0.1"
| #define PACKAGE_STRING "hashcs 6.0.1"
| #define PACKAGE_BUGREPORT "sulsj@cse.tamu.edu"
| #define PACKAGE_URL ""
| #define PACKAGE "hashcs"
| #define VERSION "6.0.1"
| #define HAVE_DIRENT_H 1
| /* end confdefs.h.  */
| #include <ac_nonexistent.h>
configure:4174: result: gcc -E
configure:4194: gcc -E -I/home/ssul/work/packages/x86_64-rhel5/include -I/home/ssul/work/packages/include  conftest.c
configure:4194: $? = 0
configure:4208: gcc -E -I/home/ssul/work/packages/x86_64-rhel5/include -I/home/ssul/work/packages/include  conftest.c
conftest.c:12:28: error: ac_nonexistent.h: No such file or directory
configure:4208: $? = 1
configure: failed program was:
| /* confdefs.h */
| #define PACKAGE_NAME "hashcs"
| #define PACKAGE_TARNAME "hashcs"
| #define PACKAGE_VERSION "6.0.1"
| #define PACKAGE_STRING "hashcs 6.0.1"
| #define PACKAGE_BUGREPORT "sulsj@cse.tamu.edu"
| #define PACKAGE_URL ""
| #define PACKAGE "hashcs"
| #define VERSION "6.0.1"
| #define HAVE_DIRENT_H 1
| /* end confdefs.h.  */
| #include <ac_nonexistent.h>
configure:4237: checking for grep that handles long lines and -e
configure:4295: result: /bin/grep
configure:4300: checking for egrep
configure:4362: result: /bin/grep -E
configure:4367: checking for uid_t in sys/types.h
configure:4386: result: yes
configure:4397: checking for ANSI C header files
configure:4417: gcc -c -I/home/ssul/work/packages/x86_64-rhel5/include -I/home/ssul/work/packages/include  -I/usr/local/include -I/home/ssul/work/packages/x86_64-rhel5/include -I/home/ssul/work/packages/include  conftest.c >&5
configure:4417: $? = 0
configure:4490: gcc -o conftest -I/home/ssul/work/packages/x86_64-rhel5/include -I/home/ssul/work/packages/include  -I/usr/local/include -I/home/ssul/work/packages/x86_64-rhel5/include -I/home/ssul/work/packages/include  -L/home/ssul/work/packages/x86_64-rhel5/lib64 -Wl,-R/home/ssul/work/packages/x86_64-rhel5/lib64 -L/home/ssul/work/packages/x86_64-rhel5/lib -Wl,-R/home/ssul/work/packages/x86_64-rhel5/lib  -L/usr/local/lib64 -Wl,-R/usr/local/lib64 -L/usr/local/lib -Wl,-R/usr/local/lib conftest.c  >&5
configure:4490: $? = 0
configure:4490: ./conftest
configure:4490: $? = 0
configure:4501: result: yes
configure:4514: checking for sys/types.h
configure:4514: gcc -c -I/home/ssul/work/packages/x86_64-rhel5/include -I/home/ssul/work/packages/include  -I/usr/local/include -I/home/ssul/work/packages/x86_64-rhel5/include -I/home/ssul/work/packages/include  conftest.c >&5
configure:4514: $? = 0
configure:4514: result: yes
configure:4514: checking for sys/stat.h
configure:4514: gcc -c -I/home/ssul/work/packages/x86_64-rhel5/include -I/home/ssul/work/packages/include  -I/usr/local/include -I/home/ssul/work/packages/x86_64-rhel5/include -I/home/ssul/work/packages/include  conftest.c >&5
configure:4514: $? = 0
configure:4514: result: yes
configure:4514: checking for stdlib.h
configure:4514: gcc -c -I/home/ssul/work/packages/x86_64-rhel5/include -I/home/ssul/work/packages/include  -I/usr/local/include -I/home/ssul/work/packages/x86_64-rhel5/include -I/home/ssul/work/packages/include  conftest.c >&5
configure:4514: $? = 0
configure:4514: result: yes
configure:4514: checking for string.h
configure:4514: gcc -c -I/home/ssul/work/packages/x86_64-rhel5/include -I/home/ssul/work/packages/include  -I/usr/local/include -I/home/ssul/work/packages/x86_64-rhel5/include -I/home/ssul/work/packages/include  conftest.c >&5
configure:4514: $? = 0
configure:4514: result: yes
configure:4514: checking for memory.h
configure:4514: gcc -c -I/home/ssul/work/packages/x86_64-rhel5/include -I/home/ssul/work/packages/include  -I/usr/local/include -I/home/ssul/work/packages/x86_64-rhel5/include -I/home/ssul/work/packages/include  conftest.c >&5
configure:4514: $? = 0
configure:4514: result: yes
configure:4514: checking for strings.h
configure:4514: gcc -c -I/home/ssul/work/packages/x86_64-rhel5/include -I/home/ssul/work/packages/include  -I/usr/local/include -I/home/ssul/work/packages/x86_64-rhel5/include -I/home/ssul/work/packages/include  conftest.c >&5
configure:4514: $? = 0
configure:4514: result: yes
configure:4514: checking for inttypes.h
configure:4514: gcc -c -I/home/ssul/work/packages/x86_64-rhel5/include -I/home/ssul/work/packages/include  -I/usr/local/include -I/home/ssul/work/packages/x86_64-rhel5/include -I/home/ssul/work/packages/include  conftest.c >&5
configure:4514: $? = 0
configure:4514: result: yes
configure:4514: checking for stdint.h
configure:4514: gcc -c -I/home/ssul/work/packages/x86_64-rhel5/include -I/home/ssul/work/packages/include  -I/usr/local/include -I/home/ssul/work/packages/x86_64-rhel5/include -I/home/ssul/work/packages/include  conftest.c >&5
configure:4514: $? = 0
configure:4514: result: yes
configure:4514: checking for unistd.h
configure:4514: gcc -c -I/home/ssul/work/packages/x86_64-rhel5/include -I/home/ssul/work/packages/include  -I/usr/local/include -I/home/ssul/work/packages/x86_64-rhel5/include -I/home/ssul/work/packages/include  conftest.c >&5
configure:4514: $? = 0
configure:4514: result: yes
configure:4526: checking for pid_t
configure:4526: gcc -c -I/home/ssul/work/packages/x86_64-rhel5/include -I/home/ssul/work/packages/include  -I/usr/local/include -I/home/ssul/work/packages/x86_64-rhel5/include -I/home/ssul/work/packages/include  conftest.c >&5
configure:4526: $? = 0
configure:4526: gcc -c -I/home/ssul/work/packages/x86_64-rhel5/include -I/home/ssul/work/packages/include  -I/usr/local/include -I/home/ssul/work/packages/x86_64-rhel5/include -I/home/ssul/work/packages/include  conftest.c >&5
conftest.c: In function 'main':
conftest.c:58: error: expected expression before ')' token
configure:4526: $? = 1
configure: failed program was:
| /* confdefs.h */
| #define PACKAGE_NAME "hashcs"
| #define PACKAGE_TARNAME "hashcs"
| #define PACKAGE_VERSION "6.0.1"
| #define PACKAGE_STRING "hashcs 6.0.1"
| #define PACKAGE_BUGREPORT "sulsj@cse.tamu.edu"
| #define PACKAGE_URL ""
| #define PACKAGE "hashcs"
| #define VERSION "6.0.1"
| #define HAVE_DIRENT_H 1
| #define STDC_HEADERS 1
| #define HAVE_SYS_TYPES_H 1
| #define HAVE_SYS_STAT_H 1
| #define HAVE_STDLIB_H 1
| #define HAVE_STRING_H 1
| #define HAVE_MEMORY_H 1
| #define HAVE_STRINGS_H 1
| #define HAVE_INTTYPES_H 1
| #define HAVE_STDINT_H 1
| #define HAVE_UNISTD_H 1
| /* end confdefs.h.  */
| #include <stdio.h>
| #ifdef HAVE_SYS_TYPES_H
| # include <sys/types.h>
| #endif
| #ifdef HAVE_SYS_STAT_H
| # include <sys/stat.h>
| #endif
| #ifdef STDC_HEADERS
| # include <stdlib.h>
| # include <stddef.h>
| #else
| # ifdef HAVE_STDLIB_H
| #  include <stdlib.h>
| # endif
| #endif
| #ifdef HAVE_STRING_H
| # if !defined STDC_HEADERS && defined HAVE_MEMORY_H
| #  include <memory.h>
| # endif
| # include <string.h>
| #endif
| #ifdef HAVE_STRINGS_H
| # include <strings.h>
| #endif
| #ifdef HAVE_INTTYPES_H
| # include <inttypes.h>
| #endif
| #ifdef HAVE_STDINT_H
| # include <stdint.h>
| #endif
| #ifdef HAVE_UNISTD_H
| # include <unistd.h>
| #endif
| int
| main ()
| {
| if (sizeof ((pid_t)))
| 	    return 0;
|   ;
|   return 0;
| }
configure:4526: result: yes
configure:4674: creating ./config.status

## ---------------- ##
## Cache variables. ##
## ---------------- ##

ac_cv_c_compiler_gnu=yes
ac_cv_cxx_compiler_gnu=yes
ac_cv_env_CCC_set=
ac_cv_env_CCC_value=
ac_cv_env_CC_set=
ac_cv_env_CC_value=
ac_cv_env_CFLAGS_set=set
ac_cv_env_CFLAGS_value='-I/home/ssul/work/packages/x86_64-rhel5/include -I/home/ssul/work/packages/include  -I/usr/local/include'
ac_cv_env_CPPFLAGS_set=set
ac_cv_env_CPPFLAGS_value='-I/home/ssul/work/packages/x86_64-rhel5/include -I/home/ssul/work/packages/include '
ac_cv_env_CPP_set=
ac_cv_env_CPP_value=
ac_cv_env_CXXFLAGS_set=set
ac_cv_env_CXXFLAGS_value='-I/home/ssul/work/packages/x86_64-rhel5/include -I/home/ssul/work/packages/include '
ac_cv_env_CXX_set=
ac_cv_env_CXX_value=
ac_cv_env_LDFLAGS_set=set
ac_cv_env_LDFLAGS_value='-L/home/ssul/work/packages/x86_64-rhel5/lib64 -Wl,-R/home/ssul/work/packages/x86_64-rhel5/lib64 -L/home/ssul/work/packages/x86_64-rhel5/lib -Wl,-R/home/ssul/work/packages/x86_64-rhel5/lib  -L/usr/local/lib64 -Wl,-R/usr/local/lib64 -L/usr/local/lib -Wl,-R/usr/local/lib'
ac_cv_env_LIBS_set=
ac_cv_env_LIBS_value=
ac_cv_env_build_alias_set=
ac_cv_env_build_alias_value=
ac_cv_env_host_alias_set=
ac_cv_env_host_alias_value=
ac_cv_env_target_alias_set=
ac_cv_env_target_alias_value=
ac_cv_header_dirent_dirent_h=yes
ac_cv_header_inttypes_h=yes
ac_cv_header_memory_h=yes
ac_cv_header_stdc=yes
ac_cv_header_stdint_h=yes
ac_cv_header_stdlib_h=yes
ac_cv_header_string_h=yes
ac_cv_header_strings_h=yes
ac_cv_header_sys_stat_h=yes
ac_cv_header_sys_types_h=yes
ac_cv_header_unistd_h=yes
ac_cv_objext=o
ac_cv_path_EGREP='/bin/grep -E'
ac_cv_path_GREP=/bin/grep
ac_cv_path_install='/usr/local/bin/install -c'
ac_cv_path_mkdir=/bin/mkdir
ac_cv_prog_AWK=gawk
ac_cv_prog_CPP='gcc -E'
ac_cv_prog_ac_ct_CC=gcc
ac_cv_prog_ac_ct_CXX=g++
ac_cv_prog_cc_c89=
ac_cv_prog_cc_g=yes
ac_cv_prog_cxx_g=yes
ac_cv_prog_make_make_set=yes
ac_cv_search_opendir='none required'
ac_cv_type_pid_t=yes
ac_cv_type_uid_t=yes
am_cv_CC_dependencies_compiler_type=gcc3
am_cv_CXX_dependencies_compiler_type=gcc3

## ----------------- ##
## Output variables. ##
## ----------------- ##

ACLOCAL='${SHELL} /export/bio/hashcs/hashcs-6.0.1-64bit/missing --run aclocal-1.11'
AMDEPBACKSLASH='\'
AMDEP_FALSE='#'
AMDEP_TRUE=''
AMTAR='${SHELL} /export/bio/hashcs/hashcs-6.0.1-64bit/missing --run tar'
AUTOCONF='${SHELL} /export/bio/hashcs/hashcs-6.0.1-64bit/missing --run autoconf'
AUTOHEADER='${SHELL} /export/bio/hashcs/hashcs-6.0.1-64bit/missing --run autoheader'
AUTOMAKE='${SHELL} /export/bio/hashcs/hashcs-6.0.1-64bit/missing --run automake-1.11'
AWK='gawk'
CC='gcc'
CCDEPMODE='depmode=gcc3'
CFLAGS='-I/home/ssul/work/packages/x86_64-rhel5/include -I/home/ssul/work/packages/include  -I/usr/local/include'
CPP='gcc -E'
CPPFLAGS='-I/home/ssul/work/packages/x86_64-rhel5/include -I/home/ssul/work/packages/include '
CXX='g++'
CXXDEPMODE='depmode=gcc3'
CXXFLAGS='-I/home/ssul/work/packages/x86_64-rhel5/include -I/home/ssul/work/packages/include '
CYGPATH_W='echo'
DEFS='-DHAVE_CONFIG_H'
DEPDIR='.deps'
ECHO_C=''
ECHO_N='-n'
ECHO_T=''
EGREP='/bin/grep -E'
EXEEXT=''
GREP='/bin/grep'
INSTALL_DATA='${INSTALL} -m 644'
INSTALL_PROGRAM='${INSTALL}'
INSTALL_SCRIPT='${INSTALL}'
INSTALL_STRIP_PROGRAM='$(install_sh) -c -s'
LDFLAGS='-L/home/ssul/work/packages/x86_64-rhel5/lib64 -Wl,-R/home/ssul/work/packages/x86_64-rhel5/lib64 -L/home/ssul/work/packages/x86_64-rhel5/lib -Wl,-R/home/ssul/work/packages/x86_64-rhel5/lib  -L/usr/local/lib64 -Wl,-R/usr/local/lib64 -L/usr/local/lib -Wl,-R/usr/local/lib'
LIBOBJS=''
LIBS=''
LTLIBOBJS=''
MAKEINFO='${SHELL} /export/bio/hashcs/hashcs-6.0.1-64bit/missing --run makeinfo'
MKDIR_P='/bin/mkdir -p'
OBJEXT='o'
PACKAGE='hashcs'
PACKAGE_BUGREPORT='sulsj@cse.tamu.edu'
PACKAGE_NAME='hashcs'
PACKAGE_STRING='hashcs 6.0.1'
PACKAGE_TARNAME='hashcs'
PACKAGE_URL=''
PACKAGE_VERSION='6.0.1'
PATH_SEPARATOR=':'
SET_MAKE=''
SHELL='/bin/sh'
STRIP=''
VERSION='6.0.1'
ac_ct_CC='gcc'
ac_ct_CXX='g++'
am__EXEEXT_FALSE=''
am__EXEEXT_TRUE='#'
am__fastdepCC_FALSE='#'
am__fastdepCC_TRUE=''
am__fastdepCXX_FALSE='#'
am__fastdepCXX_TRUE=''
am__include='include'
am__isrc=''
am__leading_dot='.'
am__quote=''
am__tar='${AMTAR} chof - "$$tardir"'
am__untar='${AMTAR} xf -'
bindir='${exec_prefix}/bin'
build_alias=''
datadir='${datarootdir}'
datarootdir='${prefix}/share'
docdir='${datarootdir}/doc/${PACKAGE_TARNAME}'
dvidir='${docdir}'
exec_prefix='${prefix}'
host_alias=''
htmldir='${docdir}'
includedir='${prefix}/include'
infodir='${datarootdir}/info'
install_sh='${SHELL} /export/bio/hashcs/hashcs-6.0.1-64bit/install-sh'
libdir='${exec_prefix}/lib'
libexecdir='${exec_prefix}/libexec'
localedir='${datarootdir}/locale'
localstatedir='${prefix}/var'
mandir='${datarootdir}/man'
mkdir_p='/bin/mkdir -p'
oldincludedir='/usr/include'
pdfdir='${docdir}'
prefix='/usr/local'
program_transform_name='s,x,x,'
psdir='${docdir}'
sbindir='${exec_prefix}/sbin'
sharedstatedir='${prefix}/com'
sysconfdir='${prefix}/etc'
target_alias=''

## ----------- ##
## confdefs.h. ##
## ----------- ##

/* confdefs.h */
#define PACKAGE_NAME "hashcs"
#define PACKAGE_TARNAME "hashcs"
#define PACKAGE_VERSION "6.0.1"
#define PACKAGE_STRING "hashcs 6.0.1"
#define PACKAGE_BUGREPORT "sulsj@cse.tamu.edu"
#define PACKAGE_URL ""
#define PACKAGE "hashcs"
#define VERSION "6.0.1"
#define HAVE_DIRENT_H 1
#define STDC_HEADERS 1
#define HAVE_SYS_TYPES_H 1
#define HAVE_SYS_STAT_H 1
#define HAVE_STDLIB_H 1
#define HAVE_STRING_H 1
#define HAVE_MEMORY_H 1
#define HAVE_STRINGS_H 1
#define HAVE_INTTYPES_H 1
#define HAVE_STDINT_H 1
#define HAVE_UNISTD_H 1

configure: exit 0

## ---------------------- ##
## Running config.status. ##
## ---------------------- ##

This file was extended by hashcs config.status 6.0.1, which was
generated by GNU Autoconf 2.68.  Invocation command line was

  CONFIG_FILES    = 
  CONFIG_HEADERS  = 
  CONFIG_LINKS    = 
  CONFIG_COMMANDS = 
  $ ./config.status 

on ssul-lx

config.status:867: creating Makefile
config.status:867: creating config.hh
config.status:1048: config.hh is unchanged
config.status:1096: executing depfiles commands

## ---------------------- ##
## Running config.status. ##
## ---------------------- ##

This file was extended by hashcs config.status 6.0.1, which was
generated by GNU Autoconf 2.68.  Invocation command line was

  CONFIG_FILES    = 
  CONFIG_HEADERS  = 
  CONFIG_LINKS    = 
  CONFIG_COMMANDS = 
  $ ./config.status config.hh

on ssul-lx

config.status:867: creating config.hh
config.status:1048: config.hh is unchanged
